fpga/sim/trace.vcd
$version Generated by VerilatedVcd $end
$timescale 1ns $end
 $scope module lab3_tb $end
  $var wire 1 < rstn $end
  $var wire 4 = col [3:0] $end
  $var wire 4 # row [3:0] $end
  $var wire 7 $ seg [6:0] $end
  $var wire 1 % pwr1 $end
  $var wire 1 & pwr0 $end
  $scope module dut $end
   $var wire 1 < rstn $end
   $var wire 4 = col [3:0] $end
   $var wire 4 # row [3:0] $end
   $var wire 7 $ seg [6:0] $end
   $var wire 1 % pwr1 $end
   $var wire 1 & pwr0 $end
   $var wire 1 > clk48kHz $end
   $var wire 1 ' clk100Hz $end
   $var wire 4 ( colDly [3:0] $end
   $var wire 4 ) colSync [3:0] $end
   $var wire 4 * activeCol [3:0] $end
   $var wire 1 + stall $end
   $var wire 1 , strobe $end
   $var wire 4 - s1 [3:0] $end
   $var wire 4 . s0 [3:0] $end
   $var wire 4 / s0next [3:0] $end
   $var wire 1 0 dbhigh $end
   $var wire 1 1 dblow $end
   $var wire 1 2 dbreq $end
   $scope module clkDiv100 $end
    $var wire 32 ? D [31:0] $end
    $var wire 1 > fastClk $end
    $var wire 1 < rstn $end
    $var wire 1 ' slowClk $end
    $var wire 9 3 counter [8:0] $end
   $upscope $end
   $scope module ctrlFSM $end
    $var wire 1 > clk $end
    $var wire 1 < rstn $end
    $var wire 1 @ en $end
    $var wire 1 0 dbhigh $end
    $var wire 1 1 dblow $end
    $var wire 4 ) col [3:0] $end
    $var wire 1 2 dbreq $end
    $var wire 1 + stall $end
    $var wire 1 , strobe $end
    $var wire 4 * activeCol [3:0] $end
    $var wire 3 4 state [2:0] $end
    $var wire 3 5 nextstate [2:0] $end
    $var wire 4 6 nextActiveCol [3:0] $end
   $upscope $end
   $scope module debouncer $end
    $var wire 32 A THRESHOLD [31:0] $end
    $var wire 1 > clk $end
    $var wire 1 < rstn $end
    $var wire 1 @ en $end
    $var wire 1 2 req $end
    $var wire 4 * activeCol [3:0] $end
    $var wire 4 ) col [3:0] $end
    $var wire 1 0 high $end
    $var wire 1 1 low $end
    $var wire 2 7 state [1:0] $end
    $var wire 2 8 nextstate [1:0] $end
    $var wire 16 9 count [15:0] $end
    $var wire 16 : nextcount [15:0] $end
   $upscope $end
   $scope module keypad_encoder $end
    $var wire 4 # row [3:0] $end
    $var wire 4 * col [3:0] $end
    $var wire 4 / s [3:0] $end
   $upscope $end
   $scope module rowFSM $end
    $var wire 1 > clk $end
    $var wire 1 < rstn $end
    $var wire 1 + stall $end
    $var wire 1 ' en $end
    $var wire 4 # row [3:0] $end
   $upscope $end
   $scope module tmux $end
    $var wire 1 > clk $end
    $var wire 1 < rstn $end
    $var wire 1 ' en $end
    $var wire 4 - s1 [3:0] $end
    $var wire 4 . s0 [3:0] $end
    $var wire 1 % pwr1 $end
    $var wire 1 & pwr0 $end
    $var wire 7 $ seg [6:0] $end
    $var wire 1 % sel $end
    $var wire 4 ; sMuxed [3:0] $end
   $upscope $end
  $upscope $end
 $upscope $end
$enddefinitions $end


#0
b0000 #
b1000000 $
0%
1&
0'
b0000 (
b0000 )
b0000 *
0+
0,
b0000 -
b0000 .
b0000 /
00
01
02
b000000000 3
b000 4
b000 5
b0000 6
b00 7
b00 8
b0000000000000000 9
b0000000000000001 :
b0000 ;
0<
b0000 =
0>
b00000000000000000000000111100000 ?
1@
b00000000000000001011101110000000 A
#20830
b0111 #
b0001110 $
b1111 -
b1111 .
b1111 ;
1>
#41660
0>
#62490
1>
#83320
0>
#104150
1>
#124980
0>
#145810
1>
#166640
0>
#187470
1>
#208300
0>
#229130
1>
#249960
0>
#270790
1>
#291620
0>
#312450
1>
#333280
0>
#354110
1>
#374940
0>
#395770
1>
#416600
0>
#437430
1>
#458260
0>
#479090
1>
#499920
0>
#520750
1>
#541580
0>
#562410
1>
#583240
0>
#604070
1>
#624900
0>
#645730
1>
#666560
0>
#687390
1>
#708220
0>
#729050
1>
#749880
0>
#770710
1>
#791540
0>
#812370
1>
#833200
0>
#854030
1>
#874860
0>
#895690
1>
#916520
0>
#937350
1>
#958180
0>
#979010
1>
#999840
0>
#1000000
1<
#1020670
b000000001 3
1>
#1041500
0>
#1062330
b000000010 3
1>
#1083160
0>
#1103990
b000000011 3
1>
#1124820
0>
#1145650
b000000100 3
1>
#1166480
0>
#1187310
b000000101 3
1>
#1208140
0>
#1228970
b000000110 3
1>
#1249800
0>
#1270630
b000000111 3
1>
#1291460
0>
#1312290
b000001000 3
1>
#1333120
0>
#1353950
b000001001 3
1>
#1374780
0>
#1395610
b000001010 3
1>
#1416440
0>
#1437270
b000001011 3
1>
#1458100
0>
#1478930
b000001100 3
1>
#1499760
0>
#1520590
b000001101 3
1>
#1541420
0>
#1562250
b000001110 3
1>
#1583080
0>
#1603910
b000001111 3
1>
#1624740
0>
#1645570
b000010000 3
1>
#1666400
0>
#1687230
b000010001 3
1>
#1708060
0>
#1728890
b000010010 3
1>
#1749720
0>
#1770550
b000010011 3
1>
#1791380
0>
#1812210
b000010100 3
1>
#1833040
0>
#1853870
b000010101 3
1>
#1874700
0>
#1895530
b000010110 3
1>
#1916360
0>
#1937190
b000010111 3
1>
#1958020
0>
#1978850
b000011000 3
1>
#1999680
0>
#2020510
b000011001 3
1>
#2041340
0>
#2062170
b000011010 3
1>
#2083000
0>
#2103830
b000011011 3
1>
#2124660
0>
#2145490
b000011100 3
1>
#2166320
0>
#2187150
b000011101 3
1>
#2207980
0>
#2228810
b000011110 3
1>
#2249640
0>
#2270470
b000011111 3
1>
#2291300
0>
#2312130
b000100000 3
1>
#2332960
0>
#2353790
b000100001 3
1>
#2374620
0>
#2395450
b000100010 3
1>
#2416280
0>
#2437110
b000100011 3
1>
#2457940
0>
#2478770
b000100100 3
1>
#2499600
0>
#2520430
b000100101 3
1>
#2541260
0>
#2562090
b000100110 3
1>
#2582920
0>
#2603750
b000100111 3
1>
#2624580
0>
#2645410
b000101000 3
1>
#2666240
0>
#2687070
b000101001 3
1>
#2707900
0>
#2728730
b000101010 3
1>
#2749560
0>
#2770390
b000101011 3
1>
#2791220
0>
#2812050
b000101100 3
1>
#2832880
0>
#2853710
b000101101 3
1>
#2874540
0>
#2895370
b000101110 3
1>
#2916200
0>
#2937030
b000101111 3
1>
#2957860
0>
#2978690
b000110000 3
1>
#2999520
0>
#3020350
b000110001 3
1>
#3041180
0>
#3062010
b000110010 3
1>
#3082840
0>
#3103670
b000110011 3
1>
#3124500
0>
#3145330
b000110100 3
1>
#3166160
0>
#3186990
b000110101 3
1>
#3207820
0>
#3228650
b000110110 3
1>
#3249480
0>
#3270310
b000110111 3
1>
#3291140
0>
#3311970
b000111000 3
1>
#3332800
0>
#3353630
b000111001 3
1>
#3374460
0>
#3395290
b000111010 3
1>
#3416120
0>
#3436950
b000111011 3
1>
#3457780
0>
#3478610
b000111100 3
1>
#3499440
0>
#3520270
b000111101 3
1>
#3541100
0>
#3561930
b000111110 3
1>
#3582760
0>
#3603590
b000111111 3
1>
#3624420
0>
#3645250
b001000000 3
1>
#3666080
0>
#3686910
b001000001 3
1>
#3707740
0>
#3728570
b001000010 3
1>
#3749400
0>
#3770230
b001000011 3
1>
#3791060
0>
#3811890
b001000100 3
1>
#3832720
0>
#3853550
b001000101 3
1>
#3874380
0>
#3895210
b001000110 3
1>
#3916040
0>
#3936870
b001000111 3
1>
#3957700
0>
#3978530
b001001000 3
1>
#3999360
0>
#4020190
b001001001 3
1>
#4041020
0>
#4061850
b001001010 3
1>
#4082680
0>
#4103510
b001001011 3
1>
#4124340
0>
#4145170
b001001100 3
1>
#4166000
0>
#4186830
b001001101 3
1>
#4207660
0>
#4228490
b001001110 3
1>
#4249320
0>
#4270150
b001001111 3
1>
#4290980
0>
#4311810
b001010000 3
1>
#4332640
0>
#4353470
b001010001 3
1>
#4374300
0>
#4395130
b001010010 3
1>
#4415960
0>
#4436790
b001010011 3
1>
#4457620
0>
#4478450
b001010100 3
1>
#4499280
0>
#4520110
b001010101 3
1>
#4540940
0>
#4561770
b001010110 3
1>
#4582600
0>
#4603430
b001010111 3
1>
#4624260
0>
#4645090
b001011000 3
1>
#4665920
0>
#4686750
b001011001 3
1>
#4707580
0>
#4728410
b001011010 3
1>
#4749240
0>
#4770070
b001011011 3
1>
#4790900
0>
#4811730
b001011100 3
1>
#4832560
0>
#4853390
b001011101 3
1>
#4874220
0>
#4895050
b001011110 3
1>
#4915880
0>
#4936710
b001011111 3
1>
#4957540
0>
#4978370
b001100000 3
1>
#4999200
0>
#5020030
b001100001 3
1>
#5040860
0>
#5061690
b001100010 3
1>
#5082520
0>
#5103350
b001100011 3
1>
#5124180
0>
#5145010
b001100100 3
1>
#5165840
0>
#5186670
b001100101 3
1>
#5207500
0>
#5228330
b001100110 3
1>
#5249160
0>
#5269990
b001100111 3
1>
#5290820
0>
#5311650
b001101000 3
1>
#5332480
0>
#5353310
b001101001 3
1>
#5374140
0>
#5394970
b001101010 3
1>
#5415800
0>
#5436630
b001101011 3
1>
#5457460
0>
#5478290
b001101100 3
1>
#5499120
0>
#5519950
b001101101 3
1>
#5540780
0>
#5561610
b001101110 3
1>
#5582440
0>
#5603270
b001101111 3
1>
#5624100
0>
#5644930
b001110000 3
1>
#5665760
0>
#5686590
b001110001 3
1>
#5707420
0>
#5728250
b001110010 3
1>
#5749080
0>
#5769910
b001110011 3
1>
#5790740
0>
#5811570
b001110100 3
1>
#5832400
0>
#5853230
b001110101 3
1>
#5874060
0>
#5894890
b001110110 3
1>
#5915720
0>
#5936550
b001110111 3
1>
#5957380
0>
#5978210
b001111000 3
1>
#5999040
0>
#6019870
b001111001 3
1>
#6040700
0>
#6061530
b001111010 3
1>
#6082360
0>
#6103190
b001111011 3
1>
#6124020
0>
#6144850
b001111100 3
1>
#6165680
0>
#6186510
b001111101 3
1>
#6207340
0>
#6228170
b001111110 3
1>
#6249000
0>
#6269830
b001111111 3
1>
#6290660
0>
#6311490
b010000000 3
1>
#6332320
0>
#6353150
b010000001 3
1>
#6373980
0>
#6394810
b010000010 3
1>
#6415640
0>
#6436470
b010000011 3
1>
#6457300
0>
#6478130
b010000100 3
1>
#6498960
0>
#6519790
b010000101 3
1>
#6540620
0>
#6561450
b010000110 3
1>
#6582280
0>
#6603110
b010000111 3
1>
#6623940
0>
#6644770
b010001000 3
1>
#6665600
0>
#6686430
b010001001 3
1>
#6707260
0>
#6728090
b010001010 3
1>
#6748920
0>
#6769750
b010001011 3
1>
#6790580
0>
#6811410
b010001100 3
1>
#6832240
0>
#6853070
b010001101 3
1>
#6873900
0>
#6894730
b010001110 3
1>
#6915560
0>
#6936390
b010001111 3
1>
#6957220
0>
#6978050
b010010000 3
1>
#6998880
0>
#7019710
b010010001 3
1>
#7040540
0>
#7061370
b010010010 3
1>
#7082200
0>
#7103030
b010010011 3
1>
#7123860
0>
#7144690
b010010100 3
1>
#7165520
0>
#7186350
b010010101 3
1>
#7207180
0>
#7228010
b010010110 3
1>
#7248840
0>
#7269670
b010010111 3
1>
#7290500
0>
#7311330
b010011000 3
1>
#7332160
0>
#7352990
b010011001 3
1>
#7373820
0>
#7394650
b010011010 3
1>
#7415480
0>
#7436310
b010011011 3
1>
#7457140
0>
#7477970
b010011100 3
1>
#7498800
0>
#7519630
b010011101 3
1>
#7540460
0>
#7561290
b010011110 3
1>
#7582120
0>
#7602950
b010011111 3
1>
#7623780
0>
#7644610
b010100000 3
1>
#7665440
0>
#7686270
b010100001 3
1>
#7707100
0>
#7727930
b010100010 3
1>
#7748760
0>
#7769590
b010100011 3
1>
#7790420
0>
#7811250
b010100100 3
1>
#7832080
0>
#7852910
b010100101 3
1>
#7873740
0>
#7894570
b010100110 3
1>
#7915400
0>
#7936230
b010100111 3
1>
#7957060
0>
#7977890
b010101000 3
1>
#7998720
0>
#8019550
b010101001 3
1>
#8040380
0>
#8061210
b010101010 3
1>
#8082040
0>
#8102870
b010101011 3
1>
#8123700
0>
#8144530
b010101100 3
1>
#8165360
0>
#8186190
b010101101 3
1>
#8207020
0>
#8227850
b010101110 3
1>
#8248680
0>
#8269510
b010101111 3
1>
#8290340
0>
#8311170
b010110000 3
1>
#8332000
0>
#8352830
b010110001 3
1>
#8373660
0>
#8394490
b010110010 3
1>
#8415320
0>
#8436150
b010110011 3
1>
#8456980
0>
#8477810
b010110100 3
1>
#8498640
0>
#8519470
b010110101 3
1>
#8540300
0>
#8561130
b010110110 3
1>
#8581960
0>
#8602790
b010110111 3
1>
#8623620
0>
#8644450
b010111000 3
1>
#8665280
0>
#8686110
b010111001 3
1>
#8706940
0>
#8727770
b010111010 3
1>
#8748600
0>
#8769430
b010111011 3
1>
#8790260
0>
#8811090
b010111100 3
1>
#8831920
0>
#8852750
b010111101 3
1>
#8873580
0>
#8894410
b010111110 3
1>
#8915240
0>
#8936070
b010111111 3
1>
#8956900
0>
#8977730
b011000000 3
1>
#8998560
0>
#9019390
b011000001 3
1>
#9040220
0>
#9061050
b011000010 3
1>
#9081880
0>
#9102710
b011000011 3
1>
#9123540
0>
#9144370
b011000100 3
1>
#9165200
0>
#9186030
b011000101 3
1>
#9206860
0>
#9227690
b011000110 3
1>
#9248520
0>
#9269350
b011000111 3
1>
#9290180
0>
#9311010
b011001000 3
1>
#9331840
0>
#9352670
b011001001 3
1>
#9373500
0>
#9394330
b011001010 3
1>
#9415160
0>
#9435990
b011001011 3
1>
#9456820
0>
#9477650
b011001100 3
1>
#9498480
0>
#9519310
b011001101 3
1>
#9540140
0>
#9560970
b011001110 3
1>
#9581800
0>
#9602630
b011001111 3
1>
#9623460
0>
#9644290
b011010000 3
1>
#9665120
0>
#9685950
b011010001 3
1>
#9706780
0>
#9727610
b011010010 3
1>
#9748440
0>
#9769270
b011010011 3
1>
#9790100
0>
#9810930
b011010100 3
1>
#9831760
0>
#9852590
b011010101 3
1>
#9873420
0>
#9894250
b011010110 3
1>
#9915080
0>
#9935910
b011010111 3
1>
#9956740
0>
#9977570
b011011000 3
1>
#9998400
0>
#10019230
b011011001 3
1>
#10040060
0>
#10060890
b011011010 3
1>
#10081720
0>
#10102550
b011011011 3
1>
#10123380
0>
#10144210
b011011100 3
1>
#10165040
0>
#10185870
b011011101 3
1>
#10206700
0>
#10227530
b011011110 3
1>
#10248360
0>
#10269190
b011011111 3
1>
#10290020
0>
#10310850
b011100000 3
1>
#10331680
0>
#10352510
b011100001 3
1>
#10373340
0>
#10394170
b011100010 3
1>
#10415000
0>
#10435830
b011100011 3
1>
#10456660
0>
#10477490
b011100100 3
1>
#10498320
0>
#10519150
b011100101 3
1>
#10539980
0>
#10560810
b011100110 3
1>
#10581640
0>
#10602470
b011100111 3
1>
#10623300
0>
#10644130
b011101000 3
1>
#10664960
0>
#10685790
b011101001 3
1>
#10706620
0>
#10727450
b011101010 3
1>
#10748280
0>
#10769110
b011101011 3
1>
#10789940
0>
#10810770
b011101100 3
1>
#10831600
0>
#10852430
b011101101 3
1>
#10873260
0>
#10894090
b011101110 3
1>
#10914920
0>
#10935750
b011101111 3
1>
#10956580
0>
#10977410
b011110000 3
1>
#10998240
0>
#11019070
b011110001 3
1>
#11039900
0>
#11060730
b011110010 3
1>
#11081560
0>
#11102390
b011110011 3
1>
#11123220
0>
#11144050
b011110100 3
1>
#11164880
0>
#11185710
b011110101 3
1>
#11206540
0>
#11227370
b011110110 3
1>
#11248200
0>
#11269030
b011110111 3
1>
#11289860
0>
#11310690
b011111000 3
1>
#11331520
0>
#11352350
b011111001 3
1>
#11373180
0>
#11394010
b011111010 3
1>
#11414840
0>
#11435670
b011111011 3
1>
#11456500
0>
#11477330
b011111100 3
1>
#11498160
0>
#11518990
b011111101 3
1>
#11539820
0>
#11560650
b011111110 3
1>
#11581480
0>
#11602310
b011111111 3
1>
#11623140
0>
#11643970
b100000000 3
1>
#11664800
0>
#11685630
b100000001 3
1>
#11706460
0>
#11727290
b100000010 3
1>
#11748120
0>
#11768950
b100000011 3
1>
#11789780
0>
#11810610
b100000100 3
1>
#11831440
0>
#11852270
b100000101 3
1>
#11873100
0>
#11893930
b100000110 3
1>
#11914760
0>
#11935590
b100000111 3
1>
#11956420
0>
#11977250
b100001000 3
1>
